{
  "framework": "ULib",
  "tests": [{
    "default": {
      "setup_file": "setup_plaintext",
      "plaintext_url": "/plaintext",
      "port": 8080,
      "approach": "Realistic",
      "classification": "Platform",
      "database": "None",
      "framework": "ULib",
      "language": "C++",
      "orm": "Micro",
      "platform": "ULib",
      "webserver": "userver_tcp",
      "os": "Linux",
      "database_os": "Linux",
      "display_name": "ULib",
      "notes": "",
      "versus": ""
    },
    "json": {
      "setup_file": "setup_json",
      "json_url": "/json",
      "port": 8080,
      "approach": "Realistic",
      "classification": "Platform",
      "database": "None",
      "framework": "ULib",
      "language": "C++",
      "orm": "Micro",
      "platform": "ULib",
      "webserver": "userver_tcp",
      "os": "Linux",
      "database_os": "Linux",
      "display_name": "ULib",
      "notes": "",
      "versus": ""
    },
    "mysql": {
      "setup_file": "setup_mysql",
      "db_url": "/db",
      "query_url": "/query?queries=",
      "fortune_url": "/fortune",
      "update_url": "/update?queries=",
      "port": 8080,
      "approach": "Realistic",
      "classification": "Platform",
      "database": "MySQL",
      "framework": "ULib",
      "language": "C++",
      "orm": "Micro",
      "platform": "ULib",
      "webserver": "userver_tcp",
      "os": "Linux",
      "database_os": "Linux",
      "display_name": "ULib-mysql",
      "notes": "",
      "versus": ""
    },
    "postgres": {
      "setup_file": "setup_postgres",
      "db_url": "/db",
      "query_url": "/query?queries=",
      "fortune_url": "/fortune",
      "update_url": "/update?queries=",
      "port": 8080,
      "approach": "Realistic",
      "classification": "Platform",
      "database": "Postgres",
      "framework": "ULib",
      "language": "C++",
      "orm": "Micro",
      "platform": "ULib",
      "webserver": "userver_tcp",
      "os": "Linux",
      "database_os": "Linux",
      "display_name": "ULib-postgres",
      "notes": "",
      "versus": ""
    },
    "sqlite": {
      "setup_file": "setup_sqlite",
      "db_url": "/db",
      "query_url": "/query?queries=",
      "fortune_url": "/fortune",
      "port": 8080,
      "approach": "Realistic",
      "classification": "Platform",
      "database": "SQLite",
      "framework": "ULib",
      "language": "C++",
      "orm": "Micro",
      "platform": "ULib",
      "webserver": "userver_tcp",
      "os": "Linux",
      "database_os": "Linux",
      "display_name": "ULib-sqlite",
      "notes": "",
      "versus": ""
    },
    "redis": {
      "setup_file": "setup_redis",
      "db_url": "/rdb",
      "query_url": "/rquery?queries=",
      "fortune_url": "/rfortune",
      "update_url": "/rupdate?queries=",
      "port": 8080,
      "approach": "Realistic",
      "classification": "Platform",
      "database": "Redis",
      "framework": "ULib",
      "language": "C++",
      "orm": "Micro",
      "platform": "ULib",
      "webserver": "userver_tcp",
      "os": "Linux",
      "database_os": "Linux",
      "display_name": "ULib-redis",
      "notes": "",
      "versus": ""
    }
  }]
}
